{
	"name": "suraj-botre/wp-rest-api-details",
	"version": "1.0.1",
	"description": "Wordpress Plugin",
	"private": true,
	"repositories":[
		{
			"type": "vcs",
			"url" : "https://bitbucket.org/suraj-botre/wp-rest-api-details"
		}
	],
	"license": "Apache-2.0",
	"homepage": "https://bitbucket.org/suraj-botre/wp-rest-api-details"
}